hw3-nicolelpepper
…
Identify homes likely impacted by blackouts

buildings %>% st_crop(buildings, bbox = diff_crop) 

Warning: attribute variables are assumed to be spatially constant throughout
all geometries

Simple feature collection with 475941 features and 5 fields
Geometry type: GEOMETRY
Dimension:     XY
Bounding box:  xmin: 1838180 ymin: 7216470 xmax: 2027040 ymax: 7386914
Projected CRS: NAD83 / Texas Centric Albers Equal Area
# A tibble: 475,941 × 6
   osm_id    code fclass   name  type                                       geom
 * <chr>    <int> <chr>    <chr> <chr>                             <POLYGON [m]>
 1 15289727  1500 building <NA>  <NA>       ((1948089 7288028, 1948091 7288013,…
 2 15289869  1500 building <NA>  <NA>       ((1927258 7322382, 1927302 7322344,…
 3 15299261  1500 building <NA>  apartments ((1984511 7303821, 1984506 7303889,…
 4 15331425  1500 building <NA>  <NA>       ((1932443 7312502, 1932452 7312502,…
 5 15349970  1500 building <NA>  <NA>       ((1925296 7328044, 1925299 7327965,…
 6 20868178  1500 building <NA>  <NA>       ((1922836 7270595, 1922854 7270569,…
 7 20871848  1500 building <NA>  <NA>       ((1922962 7270429, 1922980 7270405,…
 8 20871948  1500 building <NA>  <NA>       ((1922821 7271187, 1922826 7271177,…
 9 20876080  1500 building <NA>  <NA>       ((1922774 7270688, 1922793 7270661,…
10 20877241  1500 building <NA>  <NA>       ((1922826 7270527, 1922848 7270494,…
# ℹ 475,931 more rows
…
